2020-06-23T20:51:03+00:00 CRITICAL Out of memory (allocated 65011712) (tried to allocate 20480 bytes) en /var/www/html/wp-content/plugins/woocommerce-admin/src/API/Orders.php en la línea 109

2020-06-23T20:51:44+00:00 CRITICAL Out of memory (allocated 62914560) (tried to allocate 524288 bytes) en /var/www/html/wp-content/plugins/jetpack/locales.php en la línea 2252

2020-06-23T20:51:54+00:00 CRITICAL Out of memory (allocated 75497472) (tried to allocate 65536 bytes) en /var/www/html/wp-content/plugins/woocommerce/packages/woocommerce-rest-api/src/Controllers/Version3/class-wc-rest-report-products-totals-controller.php en la línea 104

